Storm Data Analysis
…
The approach involves grouping the data by event type, then summarizing the total fatalities and injuries for each group. Finally, we’ll sort these summaries to identify the top events causing harm to the population.

# Group by event type and summarize total fatalities and injuries
health_impacts <- cleaned_data %>%
  group_by(EVTYPE) %>%
  summarise(Total_Fatalities = sum(FATALITIES, na.rm = TRUE),
            Total_Injuries = sum(INJURIES, na.rm = TRUE),
            Total_Impacts = Total_Fatalities + Total_Injuries) %>%
  arrange(desc(Total_Impacts))

# Display the top events with respect to population health impact
print(health_impacts)

# A tibble: 985 × 4
   EVTYPE            Total_Fatalities Total_Injuries Total_Impacts
   <chr>                        <dbl>          <dbl>         <dbl>
 1 TORNADO                       5633          91346         96979
 2 EXCESSIVE HEAT                1903           6525          8428
 3 TSTM WIND                      504           6957          7461
 4 FLOOD                          470           6789          7259
 5 LIGHTNING                      816           5230          6046
 6 HEAT                           937           2100          3037
 7 FLASH FLOOD                    978           1777          2755
 8 ICE STORM                       89           1975          2064
 9 THUNDERSTORM WIND              133           1488          1621
10 WINTER STORM                   206           1321          1527
# ℹ 975 more rows
…
To figure out which types of events have the most significant economic consequences in the United States, I’ll analyze the economic impact using the PropDamageDollars and CropDamageDollars from our dataset. I'll sum up these figures for each type of event to see which ones hit the economy hardest.

# Group by event type and summarize total property and crop damage
economic_impacts <- cleaned_data %>%
  group_by(EVTYPE) %>%
  summarise(Total_Property_Damage = sum(PropDamageDollars, na.rm = TRUE),
            Total_Crop_Damage = sum(CropDamageDollars, na.rm = TRUE),
            Total_Economic_Impact = Total_Property_Damage + Total_Crop_Damage) %>%
  arrange(desc(Total_Economic_Impact))

# Display the events with the greatest economic impact
print(economic_impacts)

# A tibble: 985 × 4
   EVTYPE          Total_Property_Damage Total_Crop_Damage Total_Economic_Impact
   <chr>                           <dbl>             <dbl>                 <dbl>
 1 FLOOD                   144657709800         5661968450         150319678250 
 2 HURRICANE/TYPH…          69305840000         2607872800          71913712800 
 3 TORNADO                  56937160582.         414953110          57352113692.
 4 STORM SURGE              43323536000               5000          43323541000 
 5 HAIL                     15732266755         3025954450          18758221205 
 6 FLASH FLOOD              16140811599.        1421317100          17562128699.
 7 DROUGHT                   1046106000        13972566000          15018672000 
 8 HURRICANE                11868319010         2741910000          14610229010 
 9 RIVER FLOOD               5118945500         5029459000          10148404500 
10 ICE STORM                 3944927810         5022113500           8967041310 
# ℹ 975 more rows
…
